{
  "images" : [
    {
      "filename" : "back-arrow.pdf",
      "scale" : "1x",
      "idiom" : "universal"
    },
    {
      "scale" : "2x",
      "idiom" : "universal"
    },
    {
      "scale" : "3x",
      "idiom" : "universal"
    }
  ],
  "info" : {
    "author" : "xcode",
    "version" : 1
  },
  "properties" : {
    "template-rendering-intent" : "original",
    "preserves-vector-representation" : true
  }
}